modelo\usuario.class
modelo\RutaDAO.class
modelo\tipo_documento.class
controlador\VueloController.class
config\Conexion.class
modelo\ciudades.class
modelo\UsuarioDAO.class
modelo\Ruta.class
modelo\Strign.class
modelo\RutaVista.class
modelo\ordenes.class
modelo\Vuelo.class
modelo\estado.class
main\main.class
